# 2019 年 9 月民主党辩论添加到{ggchicklet}

> 原文:[https://dev . to/hrbrmstr/September-2019-democratic-debates-add-to-ggchicklet-316 c](https://dev.to/hrbrmstr/september-2019-democratic-debates-added-to-ggchicklet-316c)

最新一轮的 2020 年民主党辩论已经结束，所有 2019 年版本的辩论数据都已添加到 [{ggchicklet}](https://cinc.rud.is/web/packages/ggchicklet/) 。`debates2019`内置数据集的结构有一点变化:

```
library(ggchicklet)
library(hrbrthemes)
library(tidyverse)

debates2019
## # A tibble: 641 x 7
## elapsed timestamp speaker topic debate_date debate_group night
## <dbl> <time> <chr> <chr> <date> <dbl> <dbl>
## 1 1.04 21:03:05 Warren Economy 2019-09-13 1 1
## 2 1.13 21:04:29 Klobuchar Economy 2019-09-13 1 1
## 3 1.13 21:06:02 O'Rourke Economy 2019-09-13 1 1
## 4 0.226 21:07:20 O'Rourke Economy 2019-09-13 1 1
## 5 1.06 21:07:54 Booker Economy 2019-09-13 1 1
## 6 0.600 21:09:08 Booker Economy 2019-09-13 1 1
## 7 0.99 21:09:50 Warren Economy 2019-09-13 1 1
## 8 0.872 21:11:03 Castro Economy 2019-09-13 1 1
## 9 1.07 21:12:00 Gabbard Economy 2019-09-13 1 1
## 10 1.11 21:13:20 de Blasio Economy 2019-09-13 1 1
## # … with 631 more rows 
```
…
