…
<svg width="20px" height="20px" viewBox="0 0 24 24" class="highlight-action crayons-icon highlight-action--fullscreen-on"><title>Enter fullscreen mode</title></svg> <svg width="20px" height="20px" viewBox="0 0 24 24" class="highlight-action crayons-icon highlight-action--fullscreen-off"><title>Exit fullscreen mode</title></svg>

*好整齐！*

我们现在需要得到所有的字幕。我们会做得更快，因为视频播放器检索它们甚至比这个迭代更快:

```
# no crawl delay b/c the video player grabs these even faster than this code does
map(1:621, with_progress(get_subtitle)) %>% # with_progress gets you a progress bar for free
  map(as_subtitle, format = "webvtt") %>% 
  flatten_df() %>% 
  as_tibble() -> apple_subs

apple_subs
## # A tibble: 3,220 x 4
## ID Timecode.in Timecode.out Text                               
## <chr> <chr> <chr> <chr>                              
## 1 3 00:00:21.199 00:00:22.333 >> FEMALE SPEAKER: Don't stay up t…
## 2 4 00:01:10.933 00:01:11.933 >> MALE SPEAKER: Come on.          
## 3 5 00:01:36.500 00:01:37.166 >> MALE SPEAKER: All right.        
## 4 6 00:01:40.966 00:01:41.733 >> MALE SPEAKER: Yes.              
## 5 7 00:01:45.733 00:01:46.666 >> MALE SPEAKER: Woo.              
## 6 8 00:01:46.733 00:01:47.833 This is good.                      
## 7 9 00:01:49.566 00:01:52.666 (Music playing)                    
## 8 10 00:02:05.200 00:02:12.533 (Applause)                         
## 9 10 00:02:05.200 00:02:12.533 (Applause)                         
## 10 11 00:02:14.400 00:02:15.566 >> TIM COOK: Wow.                  
## # … with 3,210 more rows 
```

<svg width="20px" height="20px" viewBox="0 0 24 24" class="highlight-action crayons-icon highlight-action--fullscreen-on"><title>Enter fullscreen mode</title></svg> <svg width="20px" height="20px" viewBox="0 0 24 24" class="highlight-action crayons-icon highlight-action--fullscreen-off"><title>Exit fullscreen mode</title></svg>

流式字幕不是没有错误的，而且经常被复制，让我们看看是不是这样:

```
# Any dups?
distinct(apple_subs) 
## # A tibble: 2,734 x 4
## ID Timecode.in Timecode.out Text                               
## <chr> <chr> <chr> <chr>                              
## 1 3 00:00:21.199 00:00:22.333 >> FEMALE SPEAKER: Don't stay up t…
## 2 4 00:01:10.933 00:01:11.933 >> MALE SPEAKER: Come on.          
## 3 5 00:01:36.500 00:01:37.166 >> MALE SPEAKER: All right.        
## 4 6 00:01:40.966 00:01:41.733 >> MALE SPEAKER: Yes.              
## 5 7 00:01:45.733 00:01:46.666 >> MALE SPEAKER: Woo.              
## 6 8 00:01:46.733 00:01:47.833 This is good.                      
## 7 9 00:01:49.566 00:01:52.666 (Music playing)                    
## 8 10 00:02:05.200 00:02:12.533 (Applause)                         
## 9 11 00:02:14.400 00:02:15.566 >> TIM COOK: Wow.                  
## 10 12 00:02:15.633 00:02:18.166 Thank you.                         
## # … with 2,724 more rows
…
因为我们很好地捕捉到了所说的内容，所以我们可以开始分析过程:

```
distinct(apple_subs) %>% 
  filter(!grepl("^\\(|^>>", Text)) %>%
  unnest_tokens(word, Text) %>% 
  anti_join(get_stopwords()) %>% 
  count(word, sort=TRUE)
## Joining, by = "word"
## # A tibble: 2,408 x 2
## word n
## <chr> <int>
## 1 now 246
## 2 can 205
## 3 new 142
## 4 like 119
## 5 just 106
## 6 app 77
## 7 great 74
## 8 apple 69
## 9 right 64
## 10 apps 59
## # … with 2,398 more rows 
```
…
